[
    {
        "key": "group_5e57ec9af2720",
        "title": "GB Carta Basic",
        "fields": [
            {
                "key": "field_5e57eca0c62cb",
                "label": "Título de sección",
                "name": "brs-gb-carta-basic-secion-title",
                "type": "text",
                "instructions": "",
                "required": 1,
                "conditional_logic": 0,
                "wrapper": {
                    "width": "",
                    "class": "",
                    "id": ""
                },
                "default_value": "",
                "placeholder": "",
                "prepend": "",
                "append": "",
                "maxlength": ""
            },
            {
                "key": "field_5e57ff00d7417",
                "label": "Grupo de platos",
                "name": "brs-gb-carta-basic-group",
                "type": "repeater",
                "instructions": "",
                "required": 1,
                "conditional_logic": 0,
                "wrapper": {
                    "width": "",
                    "class": "",
                    "id": ""
                },
                "collapsed": "field_5e57ecbdc62cc",
                "min": 0,
                "max": 0,
                "layout": "row",
                "button_label": "Añadir nuevo grupo",
                "sub_fields": [
                    {
                        "key": "field_5e57ecbdc62cc",
                        "label": "Nombre de grupo",
                        "name": "brs-gb-carta-basic-group-name",
                        "type": "text",
                        "instructions": "",
                        "required": 1,
                        "conditional_logic": 0,
                        "wrapper": {
                            "width": "",
                            "class": "",
                            "id": ""
                        },
                        "default_value": "",
                        "placeholder": "",
                        "prepend": "",
                        "append": "",
                        "maxlength": ""
                    },
                    {
                        "key": "field_5e57ecdac62cd",
                        "label": "Platos",
                        "name": "brs-gb-carta-basic-group-dishes",
                        "type": "repeater",
                        "instructions": "",
                        "required": 1,
                        "conditional_logic": 0,
                        "wrapper": {
                            "width": "",
                            "class": "",
                            "id": ""
                        },
                        "collapsed": "field_5e57ed0dc62cf",
                        "min": 0,
                        "max": 0,
                        "layout": "table",
                        "button_label": "Agregar plato",
                        "sub_fields": [
                            {
                                "key": "field_5e57ecefc62ce",
                                "label": "Imagen Destacada",
                                "name": "brs-gb-carta-basic-group-dish-fi",
                                "type": "image",
                                "instructions": "",
                                "required": 0,
                                "conditional_logic": 0,
                                "wrapper": {
                                    "width": "",
                                    "class": "",
                                    "id": ""
                                },
                                "return_format": "array",
                                "preview_size": "thumbnail",
                                "library": "all",
                                "min_width": "",
                                "min_height": "",
                                "min_size": "",
                                "max_width": "",
                                "max_height": "",
                                "max_size": "",
                                "mime_types": ""
                            },
                            {
                                "key": "field_5e57ed0dc62cf",
                                "label": "Nombre",
                                "name": "brs-gb-carta-basic-group-dish-name",
                                "type": "text",
                                "instructions": "",
                                "required": 1,
                                "conditional_logic": 0,
                                "wrapper": {
                                    "width": "",
                                    "class": "",
                                    "id": ""
                                },
                                "default_value": "",
                                "placeholder": "",
                                "prepend": "",
                                "append": "",
                                "maxlength": ""
                            },
                            {
                                "key": "field_5e57ed20c62d0",
                                "label": "Ingredientes",
                                "name": "brs-gb-carta-basic-group-dish-ingredients",
                                "type": "textarea",
                                "instructions": "",
                                "required": 1,
                                "conditional_logic": 0,
                                "wrapper": {
                                    "width": "",
                                    "class": "",
                                    "id": ""
                                },
                                "default_value": "",
                                "placeholder": "",
                                "maxlength": "",
                                "rows": 2,
                                "new_lines": ""
                            },
                            {
                                "key": "field_5e57ed35c62d1",
                                "label": "Precio",
                                "name": "brs-gb-carta-basic-group-dish-price",
                                "type": "number",
                                "instructions": "",
                                "required": 1,
                                "conditional_logic": 0,
                                "wrapper": {
                                    "width": "",
                                    "class": "",
                                    "id": ""
                                },
                                "default_value": "",
                                "placeholder": "",
                                "prepend": "",
                                "append": "€",
                                "min": "",
                                "max": "",
                                "step": ""
                            }
                        ]
                    }
                ]
            }
        ],
        "location": [
            [
                {
                    "param": "block",
                    "operator": "==",
                    "value": "acf\/carta-basic"
                }
            ]
        ],
        "menu_order": 0,
        "position": "normal",
        "style": "default",
        "label_placement": "top",
        "instruction_placement": "label",
        "hide_on_screen": "",
        "active": true,
        "description": ""
    }
]