<svg width="77" height="84" xmlns="http://www.w3.org/2000/svg">
  <g fill="none" fill-rule="evenodd">
    <path d="M37.954 46.46c-2.981.733-5.214.16-5.554-3.338-.234-2.424.622-4.962 2.265-6.708 1.59-1.69 4.135-2.787 6.44-2.526 3.978.448 3.48 3.821 2.509 6.894-1.275 4.038 4.885 5.767 6.153 1.75 1.8-5.703 1.383-11.894-4.734-14.367-5.055-2.044-11.114-.314-14.88 3.596-3.791 3.933-5.182 10.182-3.355 15.408 2.046 5.854 7.527 6.943 12.853 5.637 3.993-.98 2.302-7.327-1.697-6.346M24.627 26.613c-1.398.404-2.854.793-4.326.77-3.285-.05-3.579-1.279-1.883-4.004 1.296-2.082 4.219-4.163 6.203-5.564 4.42-3.12 9.354-5.156 14.644-6.354 4.09-.928 2.359-7.093-1.733-6.166-9.507 2.155-20.425 7.596-25.634 16.077-2.08 3.382-2.237 7.62 1.087 10.283 3.708 2.97 9.098 2.36 13.377 1.124 4.019-1.163 2.308-7.335-1.735-6.166" fill="#F29100"/>
    <path d="M49.1 24.293c-.454-1.991-2.218-9.783-.58-11.71-.974 1.145.671 1.118 1.92 1.613 1.369.54 2.793 1.043 4.108 1.718 5.393 2.77 8.283 8.349 11.013 13.632 1.948 3.773 7.478.42 5.53-3.355-2.274-4.4-4.7-8.924-8.265-12.356-3.268-3.146-7.235-4.689-11.327-6.304-3.438-1.358-7.252-2.028-8.897 2.259-1.846 4.806-.781 11.426.322 16.27.948 4.16 7.125 2.4 6.176-1.767M56.118 43.67c2.632-.709 5.672-2.491 8.298-2.75 2.047-.205.984-1.896 1.584.435.302 1.174-.825 4.335-1.082 5.397-1.659 6.88-4.331 13.438-8.855 18.997-2.65 3.255 2.028 7.916 4.703 4.627 6.624-8.14 11.38-19.085 12.005-29.61.723-12.158-12.33-5.052-18.42-3.406-4.122 1.114-2.372 7.43 1.767 6.31M40.516 58.74c1.413 1.171 5.455 3.917 5.484 6.028.775 1.003.638 1.281-.41.838l-1.952.531c-1.649.31-3.22 1.05-4.875 1.327-5.28.885-12.053-.68-17.411-1.005-4.21-.256-4.195 6.298 0 6.552 9.59.58 20.43 3.075 29.3-2.262 7.047-4.239-1.79-13.562-5.504-16.642-3.222-2.675-7.88 1.935-4.632 4.632M21.136 50.465c-.994 1.41-2.86 4.493-4.515 5.247-4.38 2.002-5.69-2.4-6.6-5.316-1.448-4.628-1.234-9.286.17-13.882 1.24-4.065-4.879-5.709-6.218-1.746-1.69 4.997-.026 9.417 2.014 14.005 2.141 4.817 3.363 10.026 7.128 13.86 2.937 2.993 7.5-1.65 4.56-4.643-2.654-2.701-3.457-6.39-4.894-9.798-1.601-3.802-4.033-7.409-2.59-11.678l-6.218-1.746C1.445 43.048 2.18 53.77 8.101 60.532c6.887 7.863 14.299-.646 18.602-6.752 2.425-3.438-3.165-6.72-5.567-3.315" fill="#F29100"/>
    <path d="M.017 34.356c.95 10.381-.867 19.817 3.56 29.687C9.593 77.455 19.655 80.907 33.273 82.76c11.536 1.57 24.332-.905 32.442-9.841 3.834-4.225 7.642-8.779 9.64-14.228 2.772-7.571.28-15.49 1.023-23.301.4-4.219-6.088-4.192-6.485 0-.52 5.487.825 10.866.393 16.314-.526 6.632-4.892 11.878-9.156 16.555-7.91 8.676-20.238 9.227-31.035 7.377C18.406 73.631 10.91 68.528 7.61 56.291 5.675 49.12 7.17 41.66 6.501 34.356c-.383-4.188-6.87-4.228-6.484 0" fill="#F29100"/>
    <path d="M27.336 44.003c-1.297-4.734-1.215-10.44 3.553-13.447 4.931-3.106 10.147-.137 12.532 4.418 1.71 3.262 2.586 8.416 1.323 12.032-2.954 8.45-11.394 3.468-13.511-2.305-1.992.837-3.983 1.671-5.974 2.506 4.012 5.225 13.909 9.714 20.357 6.398 3.536-1.818 4.55-5.551 5.768-8.996 3.205-9.068 9.275-6.536 16.253-10.068 8.187-4.144 4.623-12.32-.162-17.693-6.206-6.965-15.041-11.212-24.237-12.52-19.56-2.788-38.542 8.203-41.53 28.41C.062 43.853 3.541 56.042 9.53 65.452c5.727 8.996 18.009 9.395 27.82 9.883 11.277.561 23.179-2.39 30.178-11.81 3.852-5.186 7.255-12.148 8.72-18.469 1.626-7.024-1.593-12.143-2.576-18.888-.6-4.126-6.901-2.372-6.304 1.73.974 6.688 4.029 10.731 1.835 17.995-1.338 4.428-3.852 9.545-6.563 13.335-6.71 9.389-18.864 10.426-29.446 9.27-7.005-.766-14.205-1.334-18.607-7.305-2.79-3.787-4.51-9.245-5.599-13.76-2.55-10.593-.908-22.76 7.793-30.179 13.089-11.16 35.617-8.36 46.405 4.63 1.507 1.815 3.193 5.202.608 7.253-1.249.99-5.64.872-7.173 1.324a16.561 16.561 0 00-7.102 4.259c-2.05 2.085-3.148 4.51-4.151 7.2-1.5 4.03-.726 6.2-6.994 5.676-2.496-.21-6.08-1.856-7.472-3.67-2.025-2.638-7.37-1.297-5.975 2.506C27.733 54.079 34.98 60.5 43.596 57.166c8.87-3.431 9.48-14.833 6.726-22.599C47.44 26.43 38.97 20.438 30.265 23.63c-9.22 3.38-11.577 13.547-9.234 22.104 1.106 4.033 7.414 2.32 6.305-1.73" fill="#FCC237"/>
    <path d="M51.871 31.09c-1.105-4.023-3.562-7.032-7.45-8.77-.818-.366-2.408-.588-3.022-1.198-1.21-1.2-.892-2.815-.765-4.258.289-3.3.85-6.607 1.281-9.891.54-4.117-6.068-4.078-6.603 0-.642 4.895-2.744 11.51-.506 16.231 2.357 4.974 9.159 4.004 10.698 9.605 1.104 4.016 7.475 2.312 6.367-1.72M26.76 26.841c-4.16 3.566-7.665 5.161-13.063 2.863-2.404-1.024-4.39-1.874-7.03-2.223-4.199-.554-5.738 4.652-1.753 6.243 4.778 1.908 12.579 3.375 15.39 7.9.881 1.413 4.007 6.855 4.29 8.44.977 5.473-11.07 7.722-9.349 14.829.315 1.3 1.788 2.47 3.182 2.378 6.095-.415 9.492-9.48 12.413-13.796 2.36-3.487-3.333-6.703-5.696-3.269-3.481 5.063-6.168 10.349-8.313 16.072-1.467 3.917 4.906 5.606 6.361 1.721 1.95-5.202 4.492-9.938 7.648-14.524l-5.696-3.269c-.604.895-6.008 10.542-6.717 10.59l3.181 2.377c-.275-1.133 9.847-7.752 10.549-11.035.823-3.845-2.794-6.313-4.353-9.402-1.596-3.159-2.255-6.28-5.265-8.518-4.368-3.248-10.85-4.733-15.871-6.737l-1.754 6.243c5.364.709 9.75 4.654 15.383 3.918 4.424-.575 7.884-3.444 11.128-6.224 3.205-2.744-1.477-7.31-4.664-4.577M43.82 56.16c2.343 2.528 4.673 5.063 7.028 7.58 1.988 2.128 3.997 3.706 6.985 3.856 2.915.147 4.325-3.738 2.347-5.712-3.282-3.276-6.602-6.624-7.467-11.369-.772-4.23-7.173-2.437-6.403 1.78 1.067 5.843 5.127 10.277 9.175 14.322l2.348-5.713c-1.468-.073-3.386-3.078-4.298-4.061l-5.02-5.414c-2.923-3.153-7.61 1.586-4.694 4.732" fill="#FCC237"/>
    <path d="M1.334 39l.142 1.32c.133.85.141 2.142.502 3.704.154.783.326 1.646.511 2.59l.89 2.983c.327 1.058.841 2.129 1.288 3.28.476 1.141 1.135 2.273 1.729 3.486.708 1.152 1.446 2.358 2.292 3.537.923 1.127 1.754 2.384 2.868 3.462 2.04 2.32 4.634 4.324 7.425 6.156 2.807 1.844 6.055 3.123 9.394 4.17 3.344 1.002 7.017 1.367 10.452 1.425 3.812-.067 7.137-.553 10.577-1.51 3.338-1.081 6.56-2.403 9.395-4.21 2.782-1.85 5.405-3.82 7.462-6.129 1.127-1.064 1.96-2.321 2.9-3.435a59.335 59.335 0 002.329-3.514c.607-1.207 1.284-2.326 1.766-3.466.458-1.148.985-2.212 1.32-3.266l.914-2.976.525-2.595c.37-1.567.376-2.837.512-3.693L76.672 39l.013 1.325.014 1.6.001 1.016-.123 1.144c-.092.811-.192 1.708-.3 2.684-.203.964-.425 2.006-.662 3.119-.248 1.115-.687 2.251-1.06 3.483-.396 1.225-1.038 2.422-1.591 3.727a60.037 60.037 0 01-2.202 3.834c-.91 1.23-1.752 2.588-2.882 3.772-2.068 2.54-4.741 4.788-7.685 6.824-2.987 1.994-6.379 3.59-9.98 4.75-3.578 1.063-7.635 1.65-11.243 1.722-1.09-.006-1.958-.088-2.945-.131l-1.438-.087-1.42-.219c-.944-.165-1.901-.251-2.826-.483-.923-.238-1.843-.477-2.76-.715-.921-.22-1.784-.618-2.669-.924-.883-.317-1.749-.66-2.567-1.103-.825-.421-1.664-.802-2.46-1.25l-2.302-1.44c-2.959-2.025-5.602-4.315-7.655-6.866-1.115-1.198-1.959-2.554-2.845-3.8-.813-1.297-1.507-2.608-2.165-3.857-.538-1.309-1.164-2.514-1.55-3.741-.36-1.236-.785-2.375-1.028-3.492l-.638-3.123-.286-2.69c-.043-.406-.081-.788-.118-1.15l.003-1.009c.007-.628.012-1.161.018-1.594L1.334 39M75.366 39l-.142-1.32c-.133-.85-.141-2.144-.502-3.704l-.511-2.59-.89-2.983c-.327-1.059-.841-2.128-1.288-3.281-.476-1.14-1.135-2.272-1.729-3.484-.708-1.154-1.446-2.358-2.292-3.538-.923-1.127-1.754-2.383-2.868-3.462-2.04-2.319-4.634-4.324-7.425-6.156-2.807-1.844-6.055-3.124-9.394-4.17-3.344-1-7.017-1.365-10.452-1.424-3.812.067-7.137.552-10.577 1.51-3.338 1.082-6.558 2.404-9.395 4.21-2.782 1.849-5.405 3.82-7.462 6.129-1.127 1.063-1.96 2.321-2.9 3.434a59.31 59.31 0 00-2.329 3.514c-.607 1.208-1.284 2.327-1.766 3.466-.458 1.147-.985 2.21-1.32 3.267-.327 1.06-.632 2.055-.914 2.974-.19.944-.366 1.811-.525 2.594-.37 1.57-.376 2.839-.512 3.693L.028 39l-.013-1.326-.014-1.6L0 35.057l.123-1.144c.092-.81.192-1.706.3-2.682l.662-3.12c.248-1.115.687-2.25 1.06-3.483.396-1.224 1.038-2.42 1.591-3.726a60.848 60.848 0 012.202-3.835c.91-1.227 1.752-2.587 2.882-3.772 2.068-2.539 4.741-4.786 7.685-6.823 2.987-1.995 6.379-3.588 9.98-4.748C30.063.659 34.12.072 37.728 0c1.09.007 1.958.09 2.945.133l1.438.085 1.42.22c.944.164 1.901.25 2.826.482l2.76.715c.921.22 1.784.62 2.67.926.884.315 1.748.66 2.566 1.103.825.42 1.664.802 2.46 1.247.772.485 1.541.966 2.302 1.442 2.959 2.023 5.602 4.316 7.655 6.865 1.115 1.199 1.959 2.555 2.845 3.8.813 1.298 1.507 2.607 2.165 3.856.538 1.309 1.164 2.514 1.55 3.741.36 1.236.785 2.377 1.028 3.493l.638 3.123.286 2.691c.043.405.081.786.118 1.147l-.003 1.01c-.007.627-.012 1.16-.018 1.595L75.366 39" fill="#000"/>
    <path d="M41.674 23.312c-.118-.668-.226-1.354-.382-2-.126-.648-.333-1.287-.51-1.92-.383-1.272-.892-2.476-1.304-3.828a10.473 10.473 0 01-.462-2.174c0-.393-.041-.79.009-1.185.044-.395.077-.798.19-1.174a6.2 6.2 0 01.344-1.117c.132-.364.275-.72.463-1.036.334-.679.75-1.255 1.144-1.863a1.11 1.11 0 011.083-.505l.092.014 1.999.287c.661.126 1.313.303 1.97.451l1.94.589 1.901.71a37.956 37.956 0 013.62 1.853 44.4 44.4 0 011.717 1.1l1.63 1.233 1.554 1.329c.5.464.966.968 1.446 1.448l1.353 1.538c.434.528.824 1.094 1.233 1.636l1.12 1.713.975 1.8c.299.613.558 1.248.834 1.865.242.636.446 1.29.667 1.924l-1.145-1.641-1.193-1.573a54.058 54.058 0 00-2.557-2.932c-.91-.909-1.823-1.797-2.785-2.626a52.395 52.395 0 00-2.994-2.315c-1.038-.71-2.11-1.354-3.186-1.984l-1.656-.863-1.7-.758-1.725-.692-1.764-.58-1.79-.477-1.814-.395 1.175-.49c-.363.488-.763.968-1.053 1.478-.171.25-.312.502-.435.758-.15.254-.253.514-.342.776-.117.26-.16.531-.226.8-.07.272-.062.558-.102.84.019.293-.012.579.023.889.026.305.049.615.105.937.203 1.275.502 2.645.627 4.028.069.692.096 1.386.076 2.085.013.698-.104 1.366-.165 2.047" fill="#000"/>
    <path d="M67.6 26.735c-1.102.738-2.21 1.359-3.289 2.027-1.091.65-2.156 1.312-3.349 1.92-.594.308-1.231.56-1.88.783a14.6 14.6 0 01-1.97.549c-1.322.278-2.632.407-3.932.482l-.028.002a1.417 1.417 0 01-1.283-.669 25.795 25.795 0 00-1.75-2.455 27.307 27.307 0 00-2.085-2.23l-1.16-1.025c-.398-.337-.821-.636-1.242-.962-.423-.318-.872-.594-1.322-.902L42.9 23.4c.558.009 1.12.048 1.676.143.558.087 1.1.242 1.648.402 1.078.353 2.14.822 3.111 1.443.487.309.968.633 1.43.985.447.368.882.755 1.303 1.158.844.807 1.592 1.72 2.236 2.704l-1.31-.667c1.23-.106 2.45-.207 3.628-.372.587-.094 1.173-.162 1.742-.297.576-.11 1.13-.304 1.72-.455 1.16-.356 2.394-.783 3.657-1.095 1.268-.302 2.55-.546 3.859-.614M27.3 39.305l.054.78c.04.506.152 1.254.449 2.152.304.891.777 1.958 1.609 2.963.817 1 1.902 2.008 3.29 2.72a11.01 11.01 0 004.692 1.279 10.163 10.163 0 005.132-1.161 10.096 10.096 0 003.943-3.73c.48-.792.815-1.667 1.06-2.56.134-.463.184-.889.245-1.308.035-.213.027-.528.043-.787l.015-.409c-.007.034-.019-.192-.022-.276-.013-1.887-.676-3.732-1.65-5.329-1-1.588-2.403-2.896-3.993-3.74-.798-.415-1.66-.711-2.46-.895-.954-.156-1.75-.23-2.624-.135-1.708.137-3.31.735-4.62 1.573-1.335.814-2.365 1.878-3.14 2.916-.8 1.032-1.243 2.114-1.533 3.01a9.58 9.58 0 00-.436 2.154l-.054.783m0 0l.035-.783a9.525 9.525 0 01.384-2.179c.273-.91.702-2 1.414-3.124.705-1.127 1.705-2.268 2.98-3.304a12.064 12.064 0 014.773-2.338c.91-.243 1.995-.296 2.932-.272 1.083.078 2.12.27 3.145.657a11.75 11.75 0 015.346 4.103c1.431 1.888 2.26 4.323 2.376 6.796.009.188.017.235.014.54l-.024.407c-.025.284-.02.518-.067.843-.092.658-.205 1.308-.385 1.884-.34 1.183-.843 2.325-1.557 3.294a11.225 11.225 0 01-5.337 4.16c-2.027.765-4.193.864-6.021.528a12.966 12.966 0 01-4.924-2.042c-1.347-.94-2.404-2.033-3.16-3.128a11.83 11.83 0 01-1.492-3.084 9.172 9.172 0 01-.397-2.176l-.035-.782M23.462 31.2c-.662-.09-1.336-.193-1.988-.237-.647-.078-1.31-.072-1.958-.094-1.308-.02-2.595.107-3.989.09a9.953 9.953 0 01-2.175-.224c-.364-.123-.749-.198-1.098-.372-.356-.162-.718-.32-1.034-.54a5.989 5.989 0 01-.935-.668c-.3-.236-.587-.481-.827-.759-.532-.525-.95-1.098-1.4-1.662a1.172 1.172 0 01-.141-1.244l.041-.084.907-1.876c.333-.609.696-1.203 1.05-1.8l1.166-1.725 1.27-1.65 1.396-1.543 1.484-1.456c.525-.451 1.03-.925 1.572-1.354l1.67-1.228 1.734-1.125a56.68 56.68 0 011.816-.986l1.87-.862a51.76 51.76 0 011.924-.711l1.96-.575 1.996-.408c.67-.1 1.346-.169 2.013-.246.674-.039 1.349-.04 2.014-.061-.64.206-1.27.432-1.9.619l-1.854.689a52.241 52.241 0 00-3.557 1.613c-1.141.617-2.262 1.245-3.343 1.938a54.125 54.125 0 00-3.114 2.243c-.992.806-1.933 1.665-2.865 2.533l-1.332 1.366-1.25 1.443-1.196 1.485-1.106 1.557c-.342.536-.662 1.087-1.019 1.615l-.95 1.662-.098-1.33c.35.5.681 1.036 1.075 1.474.184.24.376.456.58.655.194.22.406.405.626.571.21.193.45.322.684.466.23.16.502.235.752.361.541.177 1.112.353 1.745.444 1.253.199 2.626.332 3.956.638a15.52 15.52 0 011.968.568c.655.202 1.243.52 1.86.79" fill="#000"/>
    <path d="M34.506 7.8c.365 1.252.615 2.474.922 3.686.283 1.214.592 2.409.805 3.707.111.65.154 1.324.164 2 .011.675-.01 1.35-.098 2.01-.157 1.323-.457 2.588-.805 3.826a1.486 1.486 0 01-1.064 1.019c-.494.129-.989.255-1.479.405-.483.162-.976.312-1.459.49-.958.372-1.897.803-2.822 1.281l-1.363.778c-.455.272-.88.58-1.328.874-.883.608-1.72 1.291-2.579 2.024.186-.517.405-1.03.676-1.52.261-.498.585-.958.914-1.423.688-.9 1.479-1.753 2.389-2.475a15.203 15.203 0 012.95-1.914 16.26 16.26 0 013.334-1.277L32.6 22.308c.295-1.18.592-2.35.812-3.5.096-.576.218-1.142.268-1.715.078-.57.066-1.148.102-1.743.025-1.194-.004-2.477.093-3.753.11-1.28.28-2.553.631-3.797M26 50.543a33.67 33.67 0 00-1.51 3.532c-.435 1.192-.74 2.412-1.213 3.68-.231.631-.516 1.287-.904 1.9-.399.603-.862 1.193-1.4 1.663a9.994 9.994 0 01-1.677 1.283c-.585.38-1.188.659-1.79.972a1.115 1.115 0 01-1.29-.187l-.076-.07c-.968-.932-1.94-1.877-2.77-2.946-.866-1.04-1.634-2.155-2.378-3.29-1.39-2.327-2.56-4.806-3.312-7.424-.382-1.305-.7-2.628-.879-3.976-.189-1.344-.326-2.693-.297-4.047-.019-.673.035-1.349.067-2.019.038-.674.158-1.383.316-2.034.32-1.323.818-2.53 1.238-3.78-.03 1.325-.209 2.65-.249 3.922-.023.644-.006 1.244.086 1.878.078.638.118 1.273.237 1.902.195 1.258.449 2.502.765 3.724.138.615.366 1.207.52 1.815.196.597.384 1.195.603 1.78.235.583.438 1.175.709 1.741.248.573.488 1.15.77 1.707.528 1.13 1.162 2.205 1.805 3.27 1.291 2.132 2.842 4.084 4.519 5.92l-1.367-.26c.54-.238 1.105-.449 1.604-.73a8.507 8.507 0 001.458-.868c.463-.314.839-.706 1.2-1.129.35-.43.682-.907.976-1.447.585-1.074 1.154-2.278 1.847-3.395.343-.563.718-1.1 1.122-1.617.385-.535.844-.983 1.27-1.47" fill="#000"/>
    <path d="M6.5 33.8c1.331.06 2.622.259 3.916.47 1.284.23 2.56.52 3.81.86 1.248.332 2.462.71 3.685 1.068 1.213.377 2.426.76 3.63 1.176.63.218 1.016.786 1 1.385l-.001.022-.04 1.493c-.002.559-.007.975.008 1.498.036.996.146 1.99.292 2.987.18.987.388 1.985.712 2.967.306.992.715 1.966 1.188 2.974a9.682 9.682 0 01-1.316-1.095 10.95 10.95 0 01-1.12-1.302c-.353-.454-.633-.95-.918-1.447a11.743 11.743 0 01-.72-1.554c-.425-1.062-.695-2.172-.863-3.293-.089-.536-.16-1.182-.174-1.688l-.027-.847.001-.848.999 1.405c-2.454-.763-4.87-1.713-7.196-2.762a121.268 121.268 0 01-3.453-1.628C8.77 35.058 7.615 34.493 6.5 33.8M44.911 54.6c.908.932 1.81 1.834 2.744 2.69.925.867 1.906 1.655 2.857 2.593.472.473.95.974 1.363 1.539.421.557.781 1.163 1.108 1.775.658 1.223 1.139 2.497 1.553 3.773A1.287 1.287 0 0154 68.463l-.087.05c-2.334 1.429-4.872 2.478-7.486 3.243-2.63.7-5.354 1.131-8.09 1.03a27.113 27.113 0 01-2.043-.14c-.691-.065-1.355-.193-2.025-.33a23.415 23.415 0 01-3.898-1.147c-2.524-.957-4.864-2.319-6.972-3.957 2.49.904 4.965 1.693 7.454 2.225 1.25.245 2.493.46 3.739.565.622.058 1.253.073 1.862.1.57.021 1.28.018 1.865-.009a37.534 37.534 0 003.71-.387 32.964 32.964 0 003.653-.816 32.508 32.508 0 003.57-1.177c1.163-.478 2.331-.953 3.455-1.532l-.621 1.544c-.167-.601-.314-1.216-.507-1.8a17.776 17.776 0 00-.583-1.735 11.37 11.37 0 00-.765-1.611 13.398 13.398 0 00-.976-1.523c-.747-.985-1.586-2.003-2.339-3.077a26.922 26.922 0 01-2.006-3.379" fill="#000"/>
    <path d="M23.4 66.3c.461-1.189 1.021-2.293 1.563-3.407.562-1.102 1.137-2.193 1.802-3.274.668-1.082 1.443-2.119 2.247-3.097a43.976 43.976 0 012.56-2.778l.022-.022a1.47 1.47 0 011.562-.323c.93.36 1.901.663 2.882.929.986.246 1.99.428 2.999.554 2.166.208 4.224.516 6.463.282-.916.655-2.024 1.05-3.133 1.327a22.58 22.58 0 01-3.347.511c-1.177.109-2.355.044-3.513-.126-1.16-.156-2.3-.447-3.406-.85l1.584-.346-2.54 2.638a65.613 65.613 0 00-2.453 2.641c-.8.907-1.619 1.852-2.49 2.76-.885.9-1.784 1.789-2.802 2.581M54.6 38.002a159.555 159.555 0 013.471-1.669c1.16-.534 2.313-1.087 3.523-1.573 2.425-1.003 4.975-1.664 7.48-2.228.684-.154 1.365.26 1.523.926l.006.025.016.085c.27 1.288.588 2.6.734 3.973.081.682.135 1.383.147 2.101-.017.751-.006 1.318-.048 2.03-.053.697-.11 1.414-.228 2.086-.098.68-.215 1.358-.372 2.029-.266 1.35-.703 2.66-1.187 3.945-.526 1.27-1.066 2.531-1.78 3.705a27.825 27.825 0 01-1.08 1.743c-.357.581-.802 1.106-1.203 1.655-.854 1.064-1.751 2.087-2.75 3.01-.475.48-1.008.907-1.526 1.34-.507.444-1.088.813-1.622 1.215.806-1.073 1.604-2.125 2.33-3.217.745-1.079 1.404-2.2 2.054-3.31.593-1.145 1.21-2.266 1.694-3.445.267-.576.471-1.178.71-1.763.24-.584.414-1.193.626-1.784.342-1.212.67-2.423.902-3.652.13-.61.22-1.228.294-1.849.105-.625.102-1.222.178-1.828.055-.595.064-1.343.094-1.904a18.047 18.047 0 00-.086-1.824 79.864 79.864 0 00-.471-3.81l1.544 1.037-3.749.587c-1.241.215-2.46.455-3.687.733-2.45.605-4.981 1.246-7.537 1.63" fill="#000"/>
    <path d="M59.8 62.4c-1.075-.826-2.036-1.699-3.034-2.533-.978-.852-1.962-1.681-2.925-2.64a14.68 14.68 0 01-1.357-1.555c-.423-.55-.83-1.108-1.172-1.696-.7-1.163-1.275-2.359-1.79-3.564l-.009-.024a1.399 1.399 0 01.233-1.47c.668-.779 1.284-1.6 1.863-2.455a26.92 26.92 0 001.53-2.704c.222-.472.42-.955.633-1.44.2-.49.36-.992.537-1.5.173-.509.3-1.03.448-1.561.093-.275.07-.5.262-.879.19-.273.44-.401.515-.679.075.287-.103.599-.117.83-.002.145.087.488.127.755.11.567.13 1.14.155 1.72.009 1.153-.107 2.327-.407 3.461a14.69 14.69 0 01-1.243 3.306 15.427 15.427 0 01-1.958 2.995l.224-1.492c.525 1.135 1.035 2.267 1.588 3.346a23.52 23.52 0 001.859 3.097c.714 1.011 1.51 2.067 2.211 3.18.693 1.122 1.34 2.273 1.827 3.502" fill="#000"/>
  </g>
</svg>