<svg width="142" height="141" xmlns="http://www.w3.org/2000/svg">
  <g fill="none" fill-rule="evenodd">
    <path d="M115.443 25.497c-.188-1.855-1.988-2.885-3.686-2.774-2.97.193-6.202.695-9.266.559-.046-2.832 1.75-7.003 2.405-8.944 1.076-3.18-2.405-5.594-5.08-3.737-4.076 2.833-7.717-1.797-9.86-4.223-1.7-1.927-4.48-1.384-5.567.86l-3.394 7.011a51.854 51.854 0 00-9.657-8.007c-1.743-1.127-4.153-.613-4.954 1.441l-5.127 13.142a55.293 55.293 0 01-7.048-5.543c-1.355-1.257-3.528-.508-4.555.71a193.805 193.805 0 00-10.237 13.271c-1.795-1.277-3.258-2.787-4.665-4.64-1.54-2.025-4.617-1.318-5.566.86-1.52 3.486-3.04 6.975-4.562 10.463l-6.333-3.465c-1.222-.667-3.075.034-3.822 1.114-3.304 4.767-6.632 9.52-9.908 14.306-1.402 2.046-3.451 4.37-3.247 7.054.378 4.917 6.27 6.926 11.34 8.003a71.615 71.615 0 00-4.503 13.706c-.572 2.581 2.445 4.168 4.537 3.379 2.343-.88 4.473-1.21 6.677-1.1-1.926 5.308-4.612 12.253-2.789 16.454 1.945 4.485 7.441 3.886 12.016 4.09-.947 1.867-2.73 4.75-2.872 5.13-1.046 2.779-1.433 5.53-1.488 8.488-.04 2.008 1.455 4.024 3.695 3.62 2.585-.466 5.169-.933 7.754-1.398l-2.767 11.546c-.609 2.542 2.473 4.219 4.537 3.382 4.601-1.87 9.202-.217 11.432 4.286.926 1.871 3.33 2.642 5.035 1.237 3.22-2.652 5.788-5.567 7.948-8.928a78.515 78.515 0 016.354 6.535c1.253 1.451 4.054 1.779 5.164-.126a103.28 103.28 0 018.767-12.725c2.904 1.809 5.808 3.616 8.712 5.423 1.623 1.01 4.324.726 4.955-1.443.66-2.274 1.278-5.286 2.787-7.2 3.82-4.845 4.064-2.244 7.491-1.307 1.836.502 3.327 1.004 5.134-.143 2.547-1.617 2.005-3.634 2.64-6.105 1.979-7.713 8.505-2.363 12.314 1.247 1.475 1.397 4.39.399 4.955-1.443l5.028-16.387c.943-3.076 3.093-7.1 2.924-10.382-.237-4.634-5.728-5.711-10.18-6.43.838-3.381 1.674-6.76 2.514-10.142.356-1.44-.842-2.873-2.045-3.425-1.742-.799-3.79-1.323-5.75-1.392.873-6.912 1.331-15.555-2.908-18.801-3.725-2.85-9.27 1.41-7.967-6.024.72-4.11 3.145-6.586 2.688-11.083" fill="#FCC237"/>
    <path d="M68.957 59.385c-.152.93-.31 1.855-.463 2.773-1.081 6.465-2.477 13.057-5.79 18.8-1.431 2.481-4.89 8.065-8.115 8.438-3.112.359-6.5-2.317-7.781-4.658-.996-1.82-1.286-4.53-1.8-6.562-1.921-7.586-4.96-18.207-.408-25.386 3.212-5.068 8.847-7.387 14.653-8.752 5.883.02 8.506 7.765 9.704 15.347m38.428-3.537a339.517 339.517 0 00-11.573-24.322c-.938-1.785-2.814-2.113-4.29-1.552-3.79-3.465-7.412-2.935-13.614-1.877-12.57 2.146-29.321 6.68-39.783 15.775-2.956 1.444-5.878 2.872-8.757 4.224-1.14.535-1.695 1.446-1.826 2.41a6.813 6.813 0 00-1.113 2.221c-1.114 3.777.2 8.661 1.022 12.364 2.665 11.992 6.36 24.282 11.815 35.311.604 1.221 1.65 1.763 2.72 1.82.033.14.06.283.106.414.679 1.92 1.53 3.26 2.822 4.459.837 1.119 1.977 2.06 3.354 2.738a8.835 8.835 0 003.796.92c9.925 3.987 20.863 2.887 30.138-3.25.889-.589 1.234-1.405 1.234-2.238 12.088-3.989 23.455-9.613 33.694-17.218 1.24-.921 1.382-2.487.946-3.83a338.662 338.662 0 00-10.662-28.3l-.006-.015c-.007-.017-.016-.035-.023-.054" fill="#F29100"/>
    <path d="M25.248 48.583c9.132-7.63 19.831-12.712 30.623-17.614 11.472-5.21 22.989-10.282 35.85-10.161 4.237.04 4.24-6.466 0-6.506-13.162-.122-25.082 4.7-36.87 10.009-12.125 5.46-24.016 11.117-34.257 19.673-3.239 2.705 1.436 7.288 4.654 4.6" fill="#F29100"/>
    <path d="M91.578 20.376c14.296 20.817 24.627 43.758 30.707 68.288 1.014 4.093 7.32 2.359 6.305-1.742-6.207-25.044-16.768-48.602-31.366-69.855-2.371-3.453-8.041-.178-5.646 3.309" fill="#F29100"/>
    <path d="M11.708 47.162l3.42-9.57c-1.6.653-3.199 1.307-4.799 1.959 2.81 1.774 5.42 2.805 8.685 3.357 3.645.616 5.654-3.804 2.518-5.993l-6.114-4.263-2.517 5.991a125.52 125.52 0 0110.273 3.62l-1.442-5.479c-.493.448-.985.899-1.478 1.348-3.133 2.855 1.473 7.388 4.62 4.636 2.117-1.85 4.037-3.138 6.458-4.467 2.311-1.269 1.904-4.305 0-5.662l-.685-.488c.539.944 1.079 1.887 1.617 2.831.088-.806 1.723-4.521 2.63-4.907h-3.297a27.11 27.11 0 013.066 2.716c.221-1.716.44-3.433.662-5.148a61.282 61.282 0 01-5.736 3.495c-3.229 1.737-1.029 7.157 2.519 5.991 9.82-3.223 15.243-8.75 20.93-17.23-1.232.5-2.461 1.002-3.692 1.504 1.575.208 3.063.679 4.464 1.413v-3.308c-.426.78-5.29 2.069-6.014 2.34-3.92 1.469-2.426 7.165 1.737 6.32 4.205-.848 11.327-.852 14.958-3.45 3.51-2.513 4.942-8.792 7.692-12.206h-4.62c2.057 1.44 3.522 3.388 4.394 5.847l2.282-4.032c-1.71.699-3.498.988-5.363.866l.87 6.44c4.806-.811 11.893-.636 16.064-3.318 3.165-2.03 1.79-5.213 3.844-7.514a6823.51 6823.51 0 01-5.132-3.972 58.192 58.192 0 00-4.698 7.658c-1.65 3.216 2.436 6.73 5.132 3.974a39.105 39.105 0 005.905-7.721l-4.471 1.176 2.15 3.545c.568 2.599 3.707 2.923 5.46 1.445 1.457-1.225 5.554-.45 7.556-1.188l-4.02-4.033c-1.653 4.454-2.233 8.607-1.874 13.346.316 4.154 6.542 4.273 6.535 0l-.003-1.992c-.007-4.219-6.542-4.226-6.535 0l.003 1.992h6.535c-.316-4.18.194-7.71 1.642-11.603.84-2.264-1.771-4.86-4.02-4.032-4.314 1.587-6.704-.272-10.439 2.875 1.82.482 3.641.963 5.46 1.447-.75-3.437-2.313-5.463-5.151-7.463-1.45-1.022-3.633-.251-4.47 1.175a32.439 32.439 0 01-4.884 6.395 6823.36 6823.36 0 015.131 3.972 58.304 58.304 0 014.699-7.66c2.176-3.007-2.67-6.728-5.132-3.972-1.67 1.87-1.643 4.572-3.207 6.135-2.523 2.523-10.366 2.43-13.817 3.01-3.679.62-2.746 6.484.867 6.44 2.518-.03 4.68-.348 7.1-1.103 1.544-.48 2.958-2.339 2.282-4.032-1.442-3.608-3.068-6.18-6.075-8.739-1.234-1.053-3.44-1.466-4.62 0-1.183 1.468-2.318 2.846-3.344 4.435-.89 1.379-2.116 5.23-3.226 6.29-2.365 2.26-9.876 2.576-13.197 3.247.58 2.106 1.16 4.215 1.737 6.32 3.03-1.133 9.893-2.24 10.307-6.57.44-4.58-5.554-5.764-8.757-6.516-1.494-.351-2.85.255-3.69 1.506-4.665 6.962-8.842 11.534-17.024 14.22l2.519 5.99a61.173 61.173 0 005.736-3.496c1.684-1.155 2.27-3.599.66-5.147-2.317-2.229-4.703-5.32-8.16-3.54-3.212 1.654-5.026 6.958-5.393 10.367-.129 1.187.736 2.203 1.619 2.832l.683.487V32.64c-2.84 1.56-5.348 3.365-7.779 5.493l4.62 4.636 1.479-1.348c1.998-1.82.678-4.628-1.442-5.48a125.9 125.9 0 00-10.274-3.618c-3.718-1.133-5.432 3.958-2.518 5.992 2.04 1.42 4.077 2.842 6.114 4.263l2.519-5.991c-2.673-.454-4.83-1.248-7.124-2.696-1.905-1.201-4.117.047-4.8 1.959l-3.42 9.57c-1.423 3.978 4.89 5.691 6.3 1.743" fill="#F29100"/>
    <path d="M103.73 28.514c3.328.657 6.426.892 9.816.578l-2.79-4.95c-2.548 3.848-3.667 7.527-3.984 12.136h6.458c-.227-3.656-1.082-6.635-3.003-9.754-2.07-3.36-6.395-1.011-5.903 2.534.842 6.082 2.344 13.629 6.018 18.712 2.78 3.846 4.659 1.64 8.337 2.61 3.265.858 5.195-3.074 3.142-5.5-1.846-2.181-3.764-3.692-6.29-4.968-.83 2.004-1.658 4.008-2.489 6.012 2.37.526 6.055.816 8.264 1.837l-1.6-2.84c.492 4.122-1.895 9.644-3.106 13.544h6.23c-.429-3.147-.856-6.291-1.282-9.437-.494-3.632-6.797-2.81-6.344.874.749 6.103 1.707 12.152 2.932 18.177.488 2.4 3.808 3.202 5.398 1.451 2.41-2.656.543-5.394 3.893-2.943l-1.6-2.84c-.338 3.601-2.655 7.977-3.803 11.446l6.344.873-.094-2.345c-2.116.29-4.23.582-6.344.873l1.267 8.75c.314 2.167 3.12 2.91 4.744 1.966.64.021 1.28.04 1.921.06 1.522-1.55 3.044-3.102 4.568-4.65-1.624-1.282-2.541-1.848-4.485-2.54-3.408-1.215-5.87 4.542-2.489 6.01 2.856 1.241 5.718 2.38 8.663 3.382 1.534.522 3.697-.607 3.973-2.298l.26-1.58c.568-3.467-3.974-6.002-5.904-2.534-1.396 2.51-2.792 5.02-4.19 7.527h5.578c-1.704-2.34-2.914-4.373-3.97-7.153-1.483-3.906-7.732-2.208-6.228 1.75 1.21 3.19 2.611 5.968 4.62 8.724 1.385 1.9 4.28 2.334 5.578 0l4.19-7.529-5.903-2.532c-.087.526-.172 1.052-.26 1.578l3.974-2.297c-2.42-.822-4.767-1.695-7.12-2.717-.83 2.004-1.66 4.007-2.488 6.013.544.281 1.09.562 1.633.847 3.197 2.524 7.78-1.833 4.568-4.652-3.068-2.693-6.201-3.15-9.749-1.09l4.744 1.966-1.267-8.75c-.533-3.674-6.492-2.79-6.344.876l.094 2.345c.15 3.755 5.175 4.406 6.345.874 1.58-4.77 7.102-13.254 1.366-16.698-2.141-1.286-5.618-2.102-7.928-.706-2.413 1.456-1.27 3.74-2.724 5.343l5.397 1.45c-1.108-5.446-2.024-10.905-2.7-16.427l-6.346.874 1.282 9.438c.467 3.444 5.363 2.792 6.23 0 1.187-3.83 5.069-12.158 3.221-16.167-1.78-3.865-7.748-3.68-11.292-4.466-3.395-.753-5.933 4.271-2.488 6.011 2.025 1.024 3.507 2.196 4.983 3.942 1.047-1.835 2.095-3.666 3.142-5.499-3.092-.815-3.883.656-5.907-2.28-2.613-3.79-3.319-9.987-3.937-14.444l-5.903 2.532c1.444 1.895 2.152 4.039 2.123 6.435.265 4.236 6.167 4.228 6.458 0 .239-3.457 1.24-6.003 3.103-8.816 1.307-1.971-.396-5.171-2.787-4.949-2.9.268-5.171.236-8.1-.343-4.062-.802-5.8 5.537-1.717 6.344M18.362 41.988c-1.03.606-2.087 1.175-3.212 1.601-.545.208-1.104.39-1.67.54-.252.072-.508.131-.767.176-.23-.054-.172-.06.174-.022v5.598l5.904-3.483c3.716-2.189.305-7.798-3.432-5.594a6261.708 6261.708 0 00-5.906 3.48c-2.122 1.25-2.285 4.382 0 5.597 3.952 2.097 8.875-.26 12.34-2.297 3.72-2.183.308-7.794-3.431-5.596M5.89 61.014a178.673 178.673 0 019.978 4.826c3.864 2.02 6.876-3.124 3.405-5.464-2.135-1.44-4.29-2.886-6.675-3.948-1.12-.5-2.28-.97-3.472-1.297-.473-.129-1.094-.358-1.588-.354-1.203-.414-1.372.123-.512 1.61-.316 1.595-.052 2.088.795 1.478 3.834-1.914.429-7.38-3.407-5.464-3.559 1.778-4.713 7.026.02 8.294 2.06.551 3.923.742 5.864 1.72 1.957.99 3.769 2.21 5.57 3.425l3.405-5.464a178.162 178.162 0 00-9.977-4.827c-3.901-1.742-7.329 3.714-3.405 5.465" fill="#F29100"/>
    <path d="M11.714 65.512L9.248 73.05c-1.13 3.46 4.524 5.967 5.987 2.522 1.45-3.421 2.565-6.735 3.298-10.39l-6.432-.87c-.089 3.761-1.546 6.96-2.02 10.597-.15 1.152.746 2.239 1.621 2.827 2.44 1.64 5.65 2.418 8.385 3.449l1.741-6.314a22.95 22.95 0 01-5.064-2.025c-.84 1.993-1.68 3.988-2.522 5.982a22.393 22.393 0 016.19 2.041l-1.174-4.48c-2.447 4.16-3.465 8.056-3.29 12.888.128 3.49 5.873 4.683 6.433.87.47-3.206.94-6.411 1.412-9.618-2.145-.289-4.29-.579-6.434-.87.574 4.625.048 8.652-1.682 12.954-.644 1.6.713 3.656 2.288 4.027 4.412 1.037 8.375 2.543 12.343 4.75l-1.175-4.48c-1.973 3.9-2.983 7.607-3.27 11.968-.257 3.893 5.248 4.148 6.431.87a14.74 14.74 0 001.2-4.332c.801-4.09-5.305-5.874-6.316-1.74a15.2 15.2 0 01-2.508 6.284c-1.35 2.33.434 4.66 2.826 4.926 2.2.244 9.1-.121 10.583.867.822.548.018 2.07-.513 3.885l-2.01 6.86c-.68 2.325 1.65 4.797 4.028 4.026 5.008-1.623 8.2-3.931 11.172 1.317l3.698-4.808c-1.067-.591-2.135-1.182-3.202-1.771-1.324 1.712-2.645 3.426-3.968 5.14l3.118 3.172c1.084 1.64 3.682 2.341 5.143.662l9.58-11.011h-4.631c3.4 2.909 6.8 5.815 10.202 8.723 1.889 1.614 4.688 1.016 5.473-1.446 1.651-5.183 4.057-9.65 7.348-13.963-1.493.39-2.986.783-4.48 1.174a161.452 161.452 0 0011.715 7.94c1.525.937 3.579.312 4.48-1.174a88.253 88.253 0 019.848-13.3l-3.968.51c2.885 2.12 8.921 6.656 12.736 4.266 3.945-2.469 4.404-11.447 5.473-15.416a5607.7 5607.7 0 01-4.028 2.286c3.496 1.362 6.79 2.93 10.076 4.726 1.536.838 3.586.401 4.48-1.175 2.609-4.6 4.325-9.2 5.27-14.423.746-4.119-5.564-5.886-6.315-1.74-.842 4.652-2.272 8.738-4.61 12.858 1.493-.39 2.986-.781 4.48-1.174-3.773-2.062-7.635-3.824-11.64-5.384-1.644-.641-3.605.715-4.028 2.286-.742 2.756-1.094 7.404-2.636 9.781-.246 3.273-.966 3.273-2.162-.003a26.513 26.513 0 01-3.791-2.54c-1.103-.812-3.076-.482-3.968.51a97.451 97.451 0 00-10.87 14.627l4.479-1.175a159.73 159.73 0 01-11.714-7.94c-1.539-1.143-3.509-.1-4.481 1.175-3.637 4.767-6.195 9.831-8.01 15.529 1.824-.481 3.649-.965 5.474-1.446l-10.202-8.72c-1.272-1.088-3.399-1.417-4.631 0-3.195 3.67-6.387 7.34-9.581 11.01l5.144.663c-1.564-2.363-3.135-3.935-5.468-5.522-3.093-2.1-6.636 2.6-3.968 5.141 1.889 1.8 3.582 2.78 6.091 3.456 2.782.748 5.105-2.325 3.7-4.81-1.369-2.413-3.076-6.49-6.055-7.427-3.657-1.15-9.184 2.025-12.514 3.104 1.344 1.341 2.686 2.683 4.028 4.026 1.225-4.18 5.985-12.786 2.264-16.825-3.21-3.485-12.489-2.615-16.639-3.073.943 1.64 1.885 3.282 2.828 4.925 1.49-2.574 2.459-4.937 3.17-7.85-2.105-.58-4.211-1.159-6.316-1.74A14.671 14.671 0 0126 108.006c2.144.291 4.287.582 6.432.87.221-3.36.855-5.655 2.377-8.662.785-1.553.446-3.576-1.175-4.48-4.444-2.47-8.946-4.241-13.91-5.408l2.289 4.026c1.968-4.897 2.567-9.454 1.915-14.695-.404-3.26-5.842-4.884-6.432-.868l-1.41 9.616c2.144.292 4.288.58 6.431.87-.132-3.662.5-6.357 2.396-9.581.828-1.41.437-3.744-1.175-4.48-2.573-1.174-4.983-2.058-7.755-2.7-3.455-.8-5.995 4.27-2.523 5.982a46.406 46.406 0 006.627 2.688c4.073 1.291 5.62-4.854 1.741-6.314-2.117-.796-4.932-1.52-6.82-2.789.54.943 1.08 1.886 1.622 2.827.475-3.638 1.93-6.825 2.02-10.597.087-3.62-5.693-4.544-6.431-.87-.627 3.121-1.379 5.853-2.64 8.825l5.986 2.523 2.464-7.536c1.313-4.015-5.01-5.735-6.315-1.74" fill="#F29100"/>
    <path d="M57.85 49.4c4.33 0 4.336-6.5 0-6.5-4.33 0-4.337 6.5 0 6.5M48.563 49.416c-17.225 1.602-7.019 29.24-1.432 37.507 2.347 3.475 7.968.182 5.598-3.325-2.588-3.829-4.64-7.892-5.815-12.402-.655-2.508-3.366-14.724 1.649-15.19 4.12-.383 4.16-6.978 0-6.59M11.147 39.287c-.106 1.044-.369 2.038-.713 3.016l2.744.82 1.092-6.09c.347-1.94-2.393-2.771-2.744-.82l-1.092 6.09c-.351 1.966 2.093 2.67 2.744.82.438-1.248.679-2.512.813-3.836.2-1.972-2.646-1.956-2.844 0M29.643 30.495a15.028 15.028 0 01-.845 2.309l2.695.773c.044-1.37.302-2.722.822-3.983.312-.758.21-1.646-.52-2.099-.613-.379-1.665-.211-1.979.551-.734 1.78-1.153 3.585-1.215 5.53-.047 1.477 2.056 2.15 2.695.776.456-.981.841-1.995 1.137-3.043.532-1.894-2.258-2.704-2.79-.814M48.51 26.144a25.082 25.082 0 013.205-6.84c1.152-1.735-1.482-3.4-2.623-1.681-1.545 2.329-2.704 4.893-3.51 7.634-.603 2.045 2.328 2.922 2.928.887M67.168 17.168c.68-1.61 1.632-3.094 2.781-4.481.55-.666.13-1.694-.624-2.08-.877-.45-1.827-.122-2.378.545-1.328 1.607-2.345 3.35-3.132 5.207-.775 1.839 2.582 2.631 3.353.809M86.033 14.737c.569-1.52 1.282-2.94 2.142-4.266.497-.768.107-1.983-.553-2.428-.786-.531-1.606-.134-2.105.636a21.874 21.874 0 00-2.14 4.266c-.33.88-.227 1.903.55 2.428.65.439 1.775.25 2.106-.636M20.833 57.961c2.994 16.28 8.948 31.457 17.758 45.287 1.122 1.759 3.872.112 2.742-1.661-8.662-13.6-14.496-28.494-17.44-44.5-.38-2.078-3.441-1.198-3.06.874M55.781 115.199c16.674 2.788 35.907-6.6 50.023-14.647 1.826-1.041.183-3.868-1.648-2.825-13.107 7.473-31.93 16.924-47.506 14.317-2.056-.344-2.94 2.807-.869 3.155M107.285 26.029l-3.479.582c-.81.136-1.258 1.276-1.06 2.08.239.968 1.055 1.317 1.868 1.18l3.479-.581c.81-.135 1.259-1.275 1.06-2.08-.239-.968-1.053-1.32-1.868-1.181M118.804 43.695a20.978 20.978 0 00-6.848-2.082c-1.95-.247-1.933 3.16 0 3.404 1.825.23 3.63.782 5.308 1.618 1.778.886 3.334-2.048 1.54-2.94M126.191 62.667l-3.21-1.471c-.82-.375-1.805.41-2.02 1.282-.257 1.051.324 1.878 1.148 2.256l3.208 1.469c.821.378 1.805-.408 2.02-1.28.26-1.054-.322-1.88-1.146-2.256M134.1 82.675c-2.018-.664-4.037-1.324-6.057-1.988-1.945-.637-2.779 2.404-.844 3.04 2.019.661 4.038 1.325 6.058 1.986 1.945.638 2.779-2.404.844-3.038" fill="#FFF"/>
    <path d="M24.704 49.4s.225 1.006.57 2.77c.152.888.409 1.949.684 3.155a88.52 88.52 0 00.98 4.043c.356 1.48.835 3.06 1.308 4.736.464 1.676 1.082 3.41 1.635 5.223a218.364 218.364 0 001.953 5.516c.655 1.881 1.432 3.754 2.171 5.64 1.49 3.771 3.123 7.489 4.627 10.995l4.212 9.566a324.557 324.557 0 012.91 6.83c.681 1.663 1.046 2.626 1.046 2.626s-2.328-3.385-5.415-8.699c-1.563-2.646-3.281-5.798-5.024-9.23-.835-1.736-1.766-3.498-2.566-5.361-.845-1.84-1.635-3.746-2.435-5.645-.724-1.933-1.48-3.851-2.12-5.784-.694-1.912-1.206-3.854-1.758-5.71-.5-1.878-.958-3.696-1.296-5.442-.364-1.742-.662-3.396-.848-4.938-.102-.77-.22-1.502-.297-2.204l-.16-2.009a34.666 34.666 0 01-.167-3.248c-.023-1.8-.01-2.83-.01-2.83M29.9 46.8s.734-.728 2.05-1.966a38.538 38.538 0 012.459-2.154 48.61 48.61 0 013.349-2.64c1.24-.953 2.64-1.913 4.151-2.883 1.493-1.002 3.142-1.948 4.85-2.924 1.746-.905 3.516-1.918 5.418-2.744 1.867-.897 3.832-1.66 5.777-2.473 1.994-.693 3.97-1.43 5.967-2.006 1.972-.658 3.982-1.08 5.896-1.572 1.937-.414 3.808-.814 5.607-1.065 1.79-.289 3.489-.51 5.069-.63a49.166 49.166 0 014.302-.28 40.939 40.939 0 013.319-.048c1.841.038 2.886.086 2.886.086s-1.036.191-2.84.477c-.905.123-1.994.335-3.241.561-1.25.216-2.65.484-4.17.811-1.526.295-3.157.694-4.885 1.095-1.732.383-3.52.94-5.39 1.406-1.85.55-3.758 1.119-5.675 1.76-1.934.59-3.844 1.345-5.772 2.04-1.904.761-3.83 1.472-5.66 2.318-1.856.79-3.65 1.64-5.391 2.457-1.697.895-3.398 1.664-4.932 2.531-1.546.846-3.024 1.63-4.345 2.424a101.895 101.895 0 00-3.616 2.157c-1.069.657-2.017 1.22-2.768 1.733-1.527.985-2.415 1.529-2.415 1.529M93.6 27.3s.594.785 1.593 2.182a54.793 54.793 0 011.745 2.566 68.176 68.176 0 012.146 3.418c1.547 2.52 3.184 5.563 4.825 8.884.78 1.682 1.645 3.394 2.381 5.197.781 1.786 1.494 3.633 2.234 5.47.663 1.868 1.346 3.725 1.944 5.583.646 1.84 1.126 3.706 1.655 5.485.971 3.586 1.76 6.967 2.27 9.897.29 1.458.493 2.806.658 4.003.184 1.193.31 2.239.396 3.103.178 1.725.253 2.712.253 2.712s-.31-.94-.808-2.593c-.504-1.645-1.221-3.995-2.086-6.814-.441-1.4-.92-2.918-1.428-4.522-.496-1.605-1.101-3.272-1.65-5.018-1.193-3.46-2.468-7.144-3.86-10.785-1.363-3.65-2.837-7.258-4.229-10.638-.743-1.669-1.388-3.32-2.076-4.849l-1.916-4.33-2.938-6.473C93.989 28.21 93.6 27.3 93.6 27.3M53.3 112.257h.763c.497 0 1.234.014 2.15-.039 1.83-.064 4.447-.311 7.5-.96 3.055-.65 6.547-1.685 10.204-3.089 1.835-.683 3.696-1.489 5.595-2.302 1.9-.818 3.81-1.69 5.722-2.6a267.179 267.179 0 005.707-2.675l5.504-2.65c3.56-1.758 6.882-3.402 9.728-4.81l6.89-3.444L115.7 88.4s-.836.673-2.34 1.793a120.717 120.717 0 01-6.376 4.427 148.42 148.42 0 01-9.384 5.652c-1.757.96-3.565 1.975-5.45 2.904a260.634 260.634 0 01-5.729 2.795c-1.936.884-3.9 1.743-5.85 2.546-1.947.819-3.92 1.492-5.837 2.12-3.838 1.244-7.562 2.013-10.782 2.299-1.607.166-3.092.18-4.4.154-1.31-.046-2.443-.144-3.375-.288-.934-.096-1.64-.29-2.13-.386l-.747-.159M79.3 15.6c.444-1.206.955-2.324 1.418-3.474l1.432-3.37c.45-1.126.944-2.221 1.362-3.353l1.3-3.36L85.604 0l1.556 1.455c.828.777 1.651 1.556 2.44 2.377.789.821 1.591 1.627 2.339 2.492.773.841 1.5 1.732 2.224 2.624.706.916 1.41 1.83 2.038 2.835-1.042-.53-2.007-1.15-2.971-1.77-.945-.643-1.888-1.29-2.786-1.986-.921-.67-1.788-1.4-2.67-2.116a62.595 62.595 0 01-2.57-2.23l2.347-.587a35.865 35.865 0 01-1.48 3.501c-.588 1.122-1.17 2.244-1.87 3.296a29.374 29.374 0 01-2.235 3.04c-.828.946-1.68 1.878-2.665 2.669M61.1 20.8s.075-2.079.798-5.07a39.853 39.853 0 011.532-5.014c.35-.893.693-1.825 1.116-2.74.211-.457.413-.924.643-1.378.223-.429.436-.966.939-1.589.45-.621 1.61-1.308 2.702-1.055.984.205 1.484.672 1.901.967.785.579 1.572 1.283 2.279 1.915a29.535 29.535 0 013.577 3.877 25.351 25.351 0 012.065 3.104c.44.787.648 1.26.648 1.26l-3.928-3.146a138.325 138.325 0 00-4.014-3.036c-.75-.557-1.5-1.037-2.319-1.605-.376-.276-.708-.415-.714-.396.09.04.243-.11.082.056-.145.15-.348.54-.583 1l-.68 1.302-1.319 2.536-2.329 4.543C62.135 19.005 61.1 20.8 61.1 20.8M39 28.6c.394-1.486.95-2.907 1.538-4.307a50.17 50.17 0 011.998-4.09c1.474-2.649 3.136-5.197 5.015-7.578l.731-.925 1.023.483a35.792 35.792 0 013.284 1.76 32.744 32.744 0 013.101 2.058c1.005.725 1.95 1.534 2.864 2.368.906.848 1.77 1.737 2.546 2.716-1.128-.53-2.211-1.09-3.296-1.634l-3.23-1.612-3.222-1.548-3.246-1.455 1.752-.441-5.288 7.123c-1.793 2.37-3.566 4.763-5.57 7.082" fill="#000"/>
    <path d="M24.7 36.4s.185-1.694.83-4.09a49.728 49.728 0 011.238-4.036 66.308 66.308 0 011.74-4.5l.525-1.174c.226-.44.569-1.14 1.527-1.59a2.64 2.64 0 011.406-.184c.413.063.725.19.983.313.529.265.796.465 1.156.684a21.846 21.846 0 013.488 2.765c.934.894 1.61 1.731 2.053 2.334.44.607.654.98.654.98s-.393-.2-1.055-.555l-2.696-1.44a112.673 112.673 0 00-3.764-1.882c-.335-.155-.759-.368-.976-.432-.27-.086-.237.026-.015-.047.184-.097.07-.042-.05.244l-.457 1.083a67.003 67.003 0 01-2.077 4.368 50.656 50.656 0 01-2.092 3.699C25.814 35.075 24.7 36.4 24.7 36.4M7.981 41.6s-.08-.42-.136-1.171c-.052-.746-.085-1.82.054-3.095a21 21 0 01.88-4.302c.268-.79.472-1.503.895-2.394.235-.45.532-1.003 1.178-1.479a2.957 2.957 0 012.298-.508c.681.132 1.156.383 1.55.58l1.082.58c.717.376 1.394.804 2.065 1.188a48.736 48.736 0 013.563 2.309c2.046 1.428 3.29 2.62 3.29 2.62s-1.696-.284-4.062-1.073c-1.189-.38-2.55-.882-3.975-1.479-.707-.31-1.455-.597-2.186-.947-.716-.315-1.601-.801-1.852-.809-.001-.013-.01-.182-.383.395-.302.562-.707 1.33-1.004 1.98a103.641 103.641 0 00-1.673 3.758C8.614 40.06 7.98 41.6 7.98 41.6M62.4 124.8c-.444 1.206-.955 2.326-1.418 3.474l-1.432 3.37c-.45 1.127-.946 2.221-1.362 3.353l-1.3 3.36-.791 2.043-1.556-1.455a66.319 66.319 0 01-2.44-2.377c-.789-.821-1.591-1.627-2.34-2.492-.772-.841-1.499-1.732-2.223-2.624-.706-.916-1.41-1.83-2.038-2.835 1.042.53 2.007 1.15 2.971 1.77.945.643 1.888 1.29 2.786 1.986.921.67 1.788 1.4 2.67 2.116.882.714 1.727 1.47 2.57 2.23l-2.347.587c.43-1.194.928-2.362 1.48-3.501.588-1.122 1.17-2.244 1.87-3.296a29.374 29.374 0 012.235-3.04c.828-.946 1.68-1.877 2.665-2.669M80.6 118.3s-.075 2.079-.798 5.07a40.104 40.104 0 01-1.532 5.014c-.35.893-.693 1.825-1.116 2.74-.211.457-.413.924-.643 1.378-.223.429-.436.966-.939 1.589-.45.621-1.61 1.308-2.702 1.055-.984-.205-1.484-.672-1.901-.967-.785-.579-1.572-1.283-2.279-1.915a29.535 29.535 0 01-3.577-3.877 25.235 25.235 0 01-2.065-3.104c-.44-.787-.648-1.26-.648-1.26l3.928 3.146c1.175.916 2.534 1.965 4.014 3.037.75.556 1.5 1.036 2.319 1.604.376.278.708.415.714.396-.09-.04-.243.11-.082-.056.145-.15.348-.54.583-1l.68-1.302 1.319-2.536 2.329-4.543A108.059 108.059 0 0180.6 118.3M102.7 111.8c-.394 1.486-.95 2.907-1.538 4.307a50.17 50.17 0 01-1.998 4.09c-1.474 2.649-3.136 5.197-5.015 7.578l-.731.925-1.023-.483a35.792 35.792 0 01-3.284-1.76 32.744 32.744 0 01-3.101-2.058c-1.005-.725-1.95-1.534-2.864-2.368-.906-.848-1.77-1.737-2.546-2.716 1.128.53 2.211 1.09 3.296 1.632l3.23 1.615 3.222 1.547 3.246 1.455-1.752.441 5.288-7.123c1.793-2.37 3.566-4.763 5.57-7.082" fill="#000"/>
    <path d="M117 102.7s-.185 1.694-.829 4.09a49.781 49.781 0 01-1.239 4.036 65.837 65.837 0 01-1.74 4.502l-.523 1.172c-.228.44-.57 1.14-1.527 1.59a2.64 2.64 0 01-1.406.184 3.395 3.395 0 01-.984-.313c-.53-.265-.797-.465-1.157-.684a21.828 21.828 0 01-3.487-2.765 17.942 17.942 0 01-2.054-2.334 12.35 12.35 0 01-.654-.98s.393.2 1.055.555l2.698 1.44c1.105.577 2.395 1.233 3.763 1.882.336.155.758.368.975.434.27.085.238-.028.015.045-.182.097-.07.042.052-.244l.456-1.083a66.223 66.223 0 012.077-4.368 50.12 50.12 0 012.09-3.699c1.305-2.135 2.419-3.46 2.419-3.46M133.719 97.5s.08.42.136 1.171c.052.746.085 1.82-.054 3.096a21.01 21.01 0 01-.88 4.3c-.268.791-.471 1.504-.895 2.395-.235.45-.532 1.003-1.178 1.479a2.957 2.957 0 01-2.298.508c-.68-.132-1.155-.383-1.55-.58l-1.08-.58c-.718-.376-1.395-.804-2.067-1.188a48.73 48.73 0 01-3.562-2.309c-2.046-1.428-3.291-2.62-3.291-2.62s1.697.284 4.063 1.073c1.189.38 2.55.882 3.975 1.479.707.31 1.454.597 2.185.947.716.315 1.602.801 1.852.809.002.013.01.182.384-.395a37.9 37.9 0 001.004-1.98 103.647 103.647 0 001.673-3.758l1.583-3.847M102.133 24.7c-.194-1.247-.199-2.504-.177-3.754.057-1.248.177-2.494.39-3.728.188-1.238.507-2.447.824-3.66.354-1.2.766-2.383 1.247-3.54l1.326 2.033a61.828 61.828 0 01-3.365-.155c-1.122-.088-2.244-.159-3.363-.306-1.12-.115-2.241-.297-3.36-.484-1.12-.213-2.239-.428-3.355-.76 1.128-.293 2.253-.472 3.38-.645 1.123-.147 2.25-.29 3.373-.366 1.125-.11 2.248-.142 3.371-.191a63.458 63.458 0 013.37-.039l2.106.02-.78 2.014-1.284 3.317c-.448 1.101-.814 2.232-1.236 3.353l-1.194 3.413c-.424 1.147-.795 2.304-1.273 3.478M111.665 40.3s.432-2 1.2-4.862l1.292-4.869.71-2.733.36-1.402c.132-.493.24-.915.237-1.12-.007-.23.005-.02.093.011.006-.015-.312-.14-.75-.198-.932-.142-1.76-.306-2.636-.41a120.875 120.875 0 00-4.728-.528l-4.743-.39s.448-.202 1.258-.472c.808-.268 1.98-.608 3.419-.844a26.3 26.3 0 014.967-.379c.895.021 1.891.047 2.806.161.479.07 1.125.07 1.938.592.92.558 1.284 1.842 1.2 2.598-.05.792-.247 1.326-.367 1.788-.13.485-.29.96-.435 1.434-.293.95-.651 1.858-.98 2.742a40.52 40.52 0 01-2.148 4.67c-1.413 2.655-2.693 4.211-2.693 4.211M122.765 61.1c.107-3.059.43-6.016.723-8.968l.956-8.809.975 1.518-3.33-1.15-3.377-1.067-3.426-1.022c-1.152-.344-2.314-.673-3.486-1.055 1.22-.185 2.444-.246 3.67-.247 1.223.012 2.452.067 3.668.22 1.22.138 2.434.337 3.632.614 1.203.252 2.392.573 3.563.952l1.067.345-.094 1.173c-.237 3.02-.746 6.014-1.458 8.953a50.574 50.574 0 01-1.302 4.35c-.515 1.425-1.067 2.84-1.78 4.193" fill="#000"/>
    <path d="M127.354 76.7s.12-1.68.656-4.066c.255-1.199.61-2.575 1.05-4.028a66.605 66.605 0 011.511-4.503l.417-1.08c.11-.283.067-.396.13-.21.107.197.204.137-.043.024-.196-.092-.636-.211-.976-.316-1.399-.414-2.75-.772-3.916-1.07l-2.867-.698c-.705-.17-1.116-.281-1.116-.281s.402-.131 1.124-.286c.72-.15 1.762-.32 3.025-.365 1.265-.06 2.74.003 4.32.254.402.073.724.1 1.276.252.263.077.57.187.902.407.33.225.669.586.859 1.044.364.943.13 1.67-.01 2.136l-.43 1.188a67 67 0 01-1.84 4.38 50.378 50.378 0 01-1.874 3.722c-1.177 2.15-2.198 3.496-2.198 3.496M135.515 92.3l1.402-3.905c.4-1.15.845-2.477 1.28-3.897.216-.678.433-1.52.589-2.137.114-.68-.003-.562-.013-.553-.182-.163-1.13-.413-1.842-.675-.746-.243-1.463-.546-2.167-.804a45.837 45.837 0 01-3.784-1.635c-2.192-1.041-3.58-1.994-3.58-1.994s1.664-.023 4.05.33c1.196.163 2.575.414 4.034.75.726.178 1.487.326 2.24.542l1.147.315c.407.127.909.267 1.476.636.293.209.547.412.848.844.181.255.387.735.445 1.102.147.79-.007 1.398-.135 1.89-.284.942-.608 1.604-.936 2.366a21.153 21.153 0 01-2.198 3.754 17.04 17.04 0 01-1.993 2.306c-.53.512-.863.765-.863.765M39.567 115.7c.194 1.248.198 2.503.176 3.753a29.464 29.464 0 01-.39 3.728c-.186 1.238-.507 2.447-.824 3.66a34.133 34.133 0 01-1.246 3.541l-1.326-2.034c1.122.029 2.244.066 3.364.156 1.122.09 2.244.158 3.363.307 1.12.115 2.241.295 3.36.482 1.12.213 2.238.428 3.356.761-1.128.294-2.254.472-3.38.646-1.124.146-2.25.288-3.373.366-1.125.109-2.248.14-3.372.19a61.86 61.86 0 01-3.369.038l-2.106-.018.78-2.016 1.283-3.316c.449-1.1.816-2.232 1.236-3.354l1.195-3.412c.425-1.147.796-2.304 1.273-3.478M30.035 98.8s-.431 2.002-1.2 4.862c-.378 1.425-.819 3.089-1.293 4.868-.228.888-.467 1.804-.708 2.735l-.361 1.402c-.131.492-.24.913-.237 1.119.007.23-.004.02-.093-.012-.007.015.311.142.75.198.93.142 1.76.306 2.636.411 1.713.23 3.328.394 4.729.527 2.845.235 4.742.39 4.742.39s-.448.202-1.258.474c-.808.266-1.981.606-3.419.844-1.436.252-3.14.41-4.966.378-.895-.021-1.892-.047-2.808-.162-.477-.07-1.124-.07-1.938-.59-.92-.56-1.285-1.844-1.199-2.598.05-.794.247-1.327.367-1.788.13-.487.29-.96.435-1.436.293-.949.651-1.857.98-2.74a40.42 40.42 0 012.148-4.672c1.414-2.654 2.693-4.21 2.693-4.21" fill="#000"/>
    <path d="M18.935 79.3c-.107 3.059-.43 6.016-.724 8.968l-.955 8.809-.975-1.517 3.33 1.15 3.377 1.066 3.426 1.022c1.152.342 2.314.674 3.486 1.055-1.22.185-2.444.247-3.67.247-1.223-.012-2.452-.067-3.668-.22a32.093 32.093 0 01-3.632-.612 34.554 34.554 0 01-3.563-.954l-1.067-.345.092-1.173c.24-3.02.748-6.013 1.46-8.953.375-1.467.795-2.92 1.302-4.35.515-1.423 1.067-2.84 1.78-4.193M14.345 62.4s-.12 1.679-.656 4.066a50.567 50.567 0 01-1.049 4.028 66.583 66.583 0 01-1.512 4.502l-.416 1.081c-.11.284-.067.396-.13.21-.107-.197-.205-.138.042-.025.196.092.637.213.978.316 1.399.414 2.748.772 3.914 1.07l2.867.698c.706.172 1.117.281 1.117.281s-.404.131-1.124.288c-.72.148-1.762.318-3.026.363a21.155 21.155 0 01-4.319-.253c-.402-.072-.725-.101-1.275-.252a3.2 3.2 0 01-.902-.408 2.42 2.42 0 01-.86-1.042c-.364-.943-.13-1.672.01-2.137l.43-1.188a65.577 65.577 0 011.84-4.38 50.15 50.15 0 011.875-3.724c1.175-2.15 2.196-3.494 2.196-3.494M6.185 46.8l-1.402 3.903c-.4 1.15-.846 2.477-1.282 3.9a40.075 40.075 0 00-.586 2.136c-.116.678.001.562.013.552.182.164 1.128.414 1.84.675.747.242 1.465.546 2.169.803a46.06 46.06 0 013.784 1.636C12.911 61.447 14.3 62.4 14.3 62.4s-1.664.023-4.05-.331a46.251 46.251 0 01-4.035-.75c-.725-.178-1.485-.326-2.24-.541l-1.145-.317c-.408-.125-.91-.267-1.478-.636a3.08 3.08 0 01-.846-.844 3.004 3.004 0 01-.447-1.1c-.145-.791.009-1.4.136-1.892.285-.942.609-1.602.936-2.365A21.298 21.298 0 013.33 49.87a17.25 17.25 0 011.991-2.306c.53-.511.864-.764.864-.764" fill="#000"/>
  </g>
</svg>